2
800
2
58 40 29 75 25 50 24 79 22 39 85 68 8 31 32 20 63 58 91 36 74 74 66 71 24 30 20 24 31 13 44 93 99 2 28 65 63 45 18 99 61 10 66 71 27 76 43 64 13 25 77 34 17 92 34 34 49 15 72 45 28 58 63 1 28 52 87 78 30 80 99 95 82 62 47 67 100 35 44 79 100 95 86 60 54 22 54 82 85 29 61 47 68 9 3 8 25 96 40 31 2 87 33 32 18 92 38 29 81 41 30 96 94 76 54 94 8 20 51 62 2 48 14 42 4 7 9 46 23 43 28 31 52 46 70 82 80 90 13 44 86 4 90 16 81 8 56 71 63 90 66 35 83 84 61 35 15 70 9 86 25 30 59 43 43 86 82 88 56 18 56 33 89 22 28 14 56 95 38 83 32 21 66 100 89 45 32 22 41 72 19 77 51 28 45 54 36 17 27 6 79 66 49 100 32 5 68 11 60 73 10 15 22 79 34 62 26 71 96 54 51 95 71 70 30 40 69 77 17 68 47 62 28 24 15 44 11 47 90 95 43 46 25 7 70 17 41 37 45 70 61 8 76 9 21 62 37 36 49 15 72 48 40 21 59 51 73 17 88 23 89 65 3 50 2 58 70 4 44 44 6 47 99 16 72 97 44 88 56 15 39 29 45 47 24 26 72 99 20 100 53 24 18 94 16 50 31 57 84 54 19 79 86 40 21 37 60 91 65 25 52 13 32 35 74 75 100 26 16 55 84 97 53 92 81 93 32 80 6 84 64 33 62 44 100 18 13 83 55 6 68 21 99 93 56 8 93 18 91 44 79 41 65 31 5 82 34 19 85 6 89 74 24 88 25 48 80 18 53 95 65 40 85 67 20 89 74 81 65 18 43 74 95 40 66 55 12 98 21 95 83 90 78 87 74 82 7 42 99 74 66 1 62 72 36 28 76 64 20 9 15 94 82 88 82 72 24 9 10 96 6 26 12 30 9 76 53 93 1 15 44 88 75 88 11 30 28 75 81 47 100 73 58 49 25 32 95 86 84 60 27 44 72 20 6 88 56 85 58 16 47 2 11 90 74 1 7 58 86 21 86 64 51 77 42 69 8 55 38 96 56 60 24 94 88 92 9 58 25 9 52 27 41 37 45 14 25 71 3 16 58 85 91 12 53 80 44 89 19 51 60 51 56 27 84 46 10 66 7 35 98 73 55 86 31 36 97 23 98 59 50 45 44 28 9 15 17 2 63 57 33 52 52 31 2 26 56 53 82 40 34 75 53 92 83 33 20 52 67 45 59 81 60 3 28 86 59 34 61 20 99 73 80 66 87 81 48 55 15 9 31 83 69 69 43 35 17 24 61 45 64 44 48 76 37 31 49 30 78 23 71 66 76 85 38 40 79 79 20 66 97 31 75 10 33 11 55 66 96 99 99 82 43 80 43 72 50 82 1 44 8 7 68 63 51 57 44 62 22 70 12 99 34 48 48 71 29 88 47 36 21 14 23 72 4 13 91 26 62 62 94 85 39 75 80 92 35 34 86 93 56 95 53 21 55 6 3 26 33 20 13 53 55 37 84 98 91 35 3 82 97 25 93 49 43 14 35 60 8 10 35 73 63 29 10 88 11 67 52 44 5 64 50 54 54 89 49 17 93 2 68 75 40 37 49 7 94 43 64 28 7 30 89 41 37 79 57 49 86 73 54 65 46 70 58 63 38 36 37 25 45 6 74 98 70 20 68 4 54 16 5 48 99 87 58 82 53 87 64 8 24 50 91 36 35 23 41 91 88 63 57 93 23 35 44 35 95 5 8 92 
22 16 92 31 45 55 11 23 28 88 8 60 66 73 29 13 65 75 38 15 79 71 1 65 20 78 76 93 88 7 78 62 15 27 70 45 99 24 68 93 25 54 37 58 44 66 57 62 70 43 59 95 79 7 49 63 3 53 32 36 43 60 42 14 56 97 83 48 47 68 1 67 84 21 99 45 52 68 15 48 32 73 18 17 89 66 33 76 53 14 81 85 55 43 20 25 17 9 42 53 68 9 69 90 90 57 45 22 16 33 31 54 47 47 28 60 100 66 8 75 92 79 27 56 77 52 12 39 10 10 69 71 35 50 54 50 41 98 69 12 19 100 16 94 13 11 45 26 100 98 11 29 26 98 10 48 59 67 9 47 32 77 82 59 83 79 18 6 12 76 25 32 10 53 72 28 16 79 20 72 37 41 2 25 98 53 42 58 44 12 89 78 50 23 6 44 8 63 82 63 88 55 78 54 59 97 17 57 16 25 83 81 92 89 93 13 5 26 34 1 37 99 46 99 17 60 33 32 3 20 85 28 3 3 92 41 5 78 92 85 83 63 60 94 100 17 84 93 82 32 71 22 4 21 96 23 91 28 26 27 19 85 85 50 96 81 34 46 45 33 89 95 35 100 48 6 30 49 90 66 9 83 5 17 7 16 45 34 47 4 55 23 72 38 60 20 59 51 10 48 37 42 19 40 99 44 51 6 9 93 84 44 83 90 28 77 70 41 44 55 98 94 18 33 2 79 76 71 21 42 62 80 68 38 83 15 48 3 5 73 61 70 27 78 39 31 64 14 76 37 4 54 42 39 24 67 82 53 15 39 61 47 99 69 86 99 66 57 33 13 17 8 70 50 24 93 61 17 8 70 37 90 54 69 86 44 49 21 75 90 81 35 99 92 69 64 36 55 6 42 82 82 32 39 49 90 78 20 77 57 93 66 61 70 74 13 46 80 37 19 9 67 36 47 4 3 23 5 21 16 60 21 3 46 99 49 5 22 4 100 92 21 23 61 16 95 68 9 18 50 3 4 41 80 86 68 19 3 15 23 73 76 7 82 49 73 32 11 74 35 5 81 57 54 2 60 67 35 87 83 11 88 1 12 50 70 97 98 68 79 35 38 89 77 45 94 15 68 51 92 21 27 6 50 1 24 38 98 38 73 41 3 13 65 17 4 16 95 51 81 52 89 8 32 56 77 24 29 41 61 14 45 1 48 83 99 30 39 43 33 15 40 24 14 82 45 44 32 44 97 53 27 17 20 98 38 90 19 49 30 84 21 47 17 38 96 100 2 30 68 96 77 12 54 49 63 32 28 41 3 69 31 90 31 54 24 73 51 71 55 44 54 39 13 79 13 45 53 73 32 97 13 50 39 40 42 83 44 14 46 10 50 19 68 8 19 96 21 32 21 40 25 85 93 82 99 10 93 97 46 69 40 5 76 61 79 36 52 16 86 93 95 13 60 19 98 1 95 93 27 17 20 64 17 35 50 2 45 8 40 66 22 81 15 40 55 49 16 31 44 51 27 12 71 60 82 20 56 18 73 68 58 2 17 40 99 79 97 62 77 13 99 53 43 81 92 2 20 77 63 53 98 47 47 59 2 85 51 34 94 95 2 94 98 32 100 91 91 86 55 6 25 64 65 49 84 1 41 29 34 75 19 90 38 21 66 34 16 68 32 70 79 88 8 81 27 91 80 5 25 78 44 91 48 10 31 78 5 89 74 43 93 41 77 27 41 69 11 14 5 91 73 30 29 4 91 91 26 94 29 26 85 63 95 48 38 63 44 56 78 44 44 11 60 48 53 39 61 78 14 
54 62 33 85 81 75 41 59 96 73 99 9 99 72 7 81 57 18 43 41 28 95 23 15 42 33 100 18 35 75 54 52 54 77 49 1 12 34 9 59 42 14 60 69 27 96 56 45 71 82 70 17 1 28 35 50 23 3 40 36 13 4 87 41 27 72 28 12 45 100 13 11 59 23 42 88 74 91 47 8 60 17 36 25 76 33 37 62 54 98 14 97 71 18 58 36 28 37 62 63 63 54 5 44 19 78 73 28 69 99 100 61 3 11 32 41 47 11 48 30 79 10 4 10 33 39 99 2 61 26 15 61 6 88 60 30 68 21 88 49 63 18 91 73 21 53 91 32 77 16 99 79 55 95 63 78 17 33 58 6 3 25 82 3 83 83 40 44 72 58 57 64 8 54 48 52 20 25 13 55 11 49 45 5 49 46 79 27 69 54 42 97 45 20 68 72 25 29 23 3 3 28 86 77 81 69 18 77 43 48 34 25 35 95 59 47 6 49 44 5 32 68 77 90 91 62 78 13 60 68 42 98 11 70 20 51 21 38 71 73 50 6 93 15 56 52 1 81 48 25 85 89 43 57 37 14 54 35 86 62 77 90 53 62 58 22 71 39 60 48 57 35 10 16 36 88 42 70 51 29 13 31 68 10 97 20 87 1 92 87 68 74 59 37 28 34 19 87 55 16 63 9 53 100 38 24 41 29 94 12 41 80 45 49 27 22 22 69 11 58 44 66 42 66 54 95 58 59 47 33 24 51 84 8 50 79 26 80 89 18 34 89 26 5 2 65 31 70 39 36 80 65 55 20 22 77 35 70 25 61 5 60 69 68 78 81 98 57 79 62 100 86 89 67 43 41 22 97 23 92 62 97 16 48 87 61 29 4 69 13 27 31 1 68 79 14 86 48 27 94 44 84 29 61 4 21 52 39 85 27 13 16 70 48 29 65 11 33 24 35 52 28 49 6 87 26 86 29 54 77 26 85 49 21 70 93 57 11 65 53 81 2 47 26 32 97 16 52 75 48 28 13 45 31 62 93 64 92 54 42 81 21 99 75 99 84 17 19 87 13 46 79 16 37 75 60 18 36 93 90 8 14 8 6 98 90 60 77 71 35 50 77 67 78 6 75 9 83 99 6 95 51 82 86 5 46 51 89 87 74 96 26 81 76 30 7 94 53 21 81 32 47 80 73 69 29 27 73 75 93 88 72 8 65 10 54 41 40 63 99 63 65 12 21 79 36 96 68 74 52 75 2 12 93 18 3 42 6 93 67 37 18 51 97 50 79 23 66 27 95 73 39 63 50 50 7 60 72 80 60 76 99 8 80 54 63 41 22 67 22 89 23 44 34 66 50 5 61 62 47 15 55 75 44 66 50 74 55 2 54 55 16 31 58 56 90 14 51 65 15 86 7 55 17 27 9 75 91 86 35 94 28 65 96 35 78 80 99 64 46 89 52 36 23 99 73 45 88 25 16 38 22 5 71 15 70 59 83 59 35 100 2 2 18 50 58 87 59 74 87 56 67 47 36 37 26 37 73 49 67 66 13 15 6 23 9 13 70 91 24 34 59 15 12 89 97 53 49 72 97 43 45 38 47 86 44 44 97 92 64 70 27 57 100 53 24 1 60 80 16 87 1 88 26 64 34 80 84 71 74 97 56 79 56 81 53 93 75 10 27 76 40 54 43 71 32 44 51 62 18 1 13 55 12 77 93 38 85 19 75 42 3 40 29 3 90 50 30 97 29 63 68 62 7 38 96 15 61 20 60 22 90 80 8 48 94 60 71 89 28 66 7 52 73 83 32 30 58 89 26 
5 6 95 62 85 23 13 10 17 43 45 74 26 32 41 22 97 76 34 65 34 10 41 88 65 21 75 100 100 60 2 100 41 70 38 6 5 91 89 48 77 26 23 14 49 48 28 14 10 56 31 35 80 29 43 1 87 81 40 97 85 72 5 81 65 85 59 91 47 98 60 78 76 98 57 19 91 58 37 53 44 32 87 64 99 96 97 71 4 87 34 45 18 58 41 8 58 47 95 63 30 18 43 81 73 7 92 54 48 66 83 83 62 30 74 64 92 6 79 30 16 38 17 17 58 62 35 94 39 84 86 58 98 98 74 41 37 1 40 43 13 24 39 83 8 48 67 65 50 1 49 49 29 65 84 52 62 76 67 58 9 56 44 73 28 42 73 49 82 64 81 97 37 32 25 45 71 9 11 24 29 8 91 8 33 34 72 4 44 76 37 61 42 55 81 91 22 66 52 74 2 72 35 21 1 6 85 66 49 73 54 24 13 67 72 92 23 40 81 25 19 19 97 39 97 10 80 90 10 34 34 20 69 42 21 42 47 47 46 18 89 100 16 99 15 2 13 65 12 43 87 52 24 11 50 63 71 7 95 35 88 30 72 70 62 80 32 45 45 33 94 13 12 77 49 45 74 18 91 58 87 7 30 85 93 9 94 49 78 40 80 17 39 82 98 44 45 68 96 5 95 61 95 1 20 62 44 83 91 37 31 80 80 56 57 43 89 50 35 90 41 27 28 81 47 70 100 71 86 12 9 23 87 12 70 45 24 43 31 21 60 28 16 82 35 82 17 39 36 52 74 14 28 58 2 70 20 23 86 23 6 54 39 23 79 12 63 43 49 6 4 94 75 79 45 53 77 77 94 72 87 21 94 24 51 51 68 42 99 83 83 39 63 68 89 16 19 71 65 71 29 4 64 90 20 91 73 57 5 65 80 71 21 72 69 33 3 60 92 53 83 43 4 40 100 28 1 42 17 84 62 43 46 89 14 95 9 78 5 29 64 66 63 83 78 72 89 93 84 36 15 44 32 12 49 49 98 5 49 30 79 54 84 48 56 45 96 43 84 78 37 17 44 37 38 53 30 39 63 95 76 63 9 19 35 12 6 31 55 35 46 32 40 43 88 17 30 21 84 34 49 1 81 6 15 96 39 9 42 4 91 7 37 21 22 33 79 53 47 93 10 22 43 92 61 22 78 51 48 67 60 85 66 49 37 88 89 97 32 74 5 79 21 2 70 26 66 35 72 54 31 80 52 34 26 76 33 11 18 97 2 29 69 43 65 65 56 30 56 90 54 60 8 60 25 96 24 58 92 100 91 86 72 48 8 7 17 43 72 82 51 37 65 53 2 73 98 44 11 41 54 93 81 5 98 27 58 8 25 97 53 89 3 35 68 24 86 5 41 7 26 87 47 31 84 53 10 3 47 100 30 33 63 88 20 66 87 8 98 71 12 87 41 57 36 72 72 41 42 28 26 40 36 30 24 80 19 72 20 48 58 24 89 97 41 25 21 98 79 43 7 84 66 72 16 81 18 13 55 10 5 40 40 8 37 59 87 88 74 53 94 13 2 92 88 61 26 15 66 75 7 92 33 92 49 28 74 65 34 58 11 48 18 6 15 60 94 75 64 70 70 6 30 97 80 28 78 62 1 74 40 93 34 64 14 15 32 32 82 32 31 55 14 42 37 20 90 78 65 60 66 15 30 6 29 21 51 72 33 44 91 78 3 13 49 13 73 8 99 90 42 35 86 4 34 93 59 43 6 62 37 43 59 50 63 25 62 97 75 48 7 26 67 71 10 79 34 80 49 3 
28270 28123
